Lecture/Homework9/Problem4/simulation/qsim/ThunderBird.msim.vcd
$comment
	File created using the following command:
		vcd file ThunderBird.msim.vcd -direction
$end
$date
	Tue Apr 23 01:16:35 2019
$end
$version
	ModelSim Version 10.1d
$end
$timescale
	1ps
$end
$scope module ThunderBird_vlg_vec_tst $end
$var reg 1 ! clock $end
$var reg 1 " Lft $end
$var reg 1 # reset $end
$var wire 1 $ LeftTurn $end
$var wire 1 % LeftTurn1 $end
$var wire 1 & LeftTurn2 $end
$var wire 1 ' sampler $end
$scope module i1 $end
$var wire 1 ( gnd $end
$var wire 1 ) vcc $end
$var wire 1 * unknown $end
$var tri1 1 + devclrn $end
$var tri1 1 , devpor $end
$var tri1 1 - devoe $end
$var wire 1 . Lft~input_o $end
$var wire 1 / LeftTurn1~output_o $end
$var wire 1 0 LeftTurn2~output_o $end
$var wire 1 1 LeftTurn~output_o $end
$var wire 1 2 clock~input_o $end
$var wire 1 3 clock~inputclkctrl_outclk $end
$var wire 1 4 inst60~combout $end
$var wire 1 5 reset~input_o $end
$var wire 1 6 reset~inputclkctrl_outclk $end
$var wire 1 7 C0~q $end
$var wire 1 8 inst8~0_combout $end
$var wire 1 9 C2~q $end
$var wire 1 : inst70~combout $end
$var wire 1 ; C1~q $end
$upscope $end
$upscope $end
$enddefinitions $end
#0
$dumpvars
0!
0"
0#
x$
x%
x&
x'
0(
1)
x*
1+
1,
1-
0.
x/
x0
x1
02
x3
x4
05
x6
07
x8
09
x:
0;
$end
#378
06
03
#434
04
#564
0:
#3063
0/
0%
#3088
01
0$
#3290
00
0&
#3719
08
#25000
1!
0'
#25527
12
#25917
13
#50000
1#
0!
1'
#50527
15
#50701
02
#50917
16
#51079
03
#75000
1"
1!
0'
#75507
1.
#75527
12
#75917
13
#78969
18
#100000
0!
1'
#100701
02
#101079
03
#125000
1!
0'
#125527
12
#125917
13
#127554
19
#128045
1:
#130938
10
1&
#150000
0"
0!
1'
#150681
0.
#150701
02
#151079
03
#175000
1!
0'
#175527
12
#175917
13
#177554
1;
#177928
14
#180702
1/
1%
#200000
0!
1'
#200701
02
#201079
03
#225000
1"
1!
0'
#225507
1.
#225527
12
#225917
13
#227554
17
#227919
0:
#227923
04
#228209
08
#228969
18
#230726
11
1$
#250000
0!
1'
#250701
02
#251079
03
#275000
1!
0'
#275527
12
#275917
13
#277554
07
0;
#278000
1:
#280617
0/
0%
#280642
01
0$
#300000
0"
0!
1'
#300681
0.
#300701
02
#301079
03
#325000
1!
0'
#325527
12
#325917
13
#327554
1;
#327928
14
#330702
1/
1%
#350000
0!
1'
#350701
02
#351079
03
#375000
1"
1!
0'
#375507
1.
#375527
12
#375917
13
#377554
17
#377919
0:
#377923
04
#378209
08
#378969
18
#380726
11
1$
#400000
0!
1'
#400701
02
#401079
03
#425000
1!
0'
#425527
12
#425917
13
#427554
07
0;
#428000
1:
#430617
0/
0%
#430642
01
0$
#450000
0"
0!
1'
#450681
0.
#450701
02
#451079
03
#475000
1!
0'
#475527
12
#475917
13
#477554
1;
#477928
14
#480702
1/
1%
#500000
0!
1'
#500701
02
#501079
03
#525000
1"
1!
0'
#525507
1.
#525527
12
#525917
13
#527554
17
#527919
0:
#527923
04
#528209
08
#528969
18
#530726
11
1$
#550000
0!
1'
#550701
02
#551079
03
#575000
1!
0'
#575527
12
#575917
13
#577554
07
0;
#578000
1:
#580617
0/
0%
#580642
01
0$
#600000
0"
0!
1'
#600681
0.
#600701
02
#601079
03
#625000
1!
0'
#625527
12
#625917
13
#627554
1;
#627928
14
#630702
1/
1%
#650000
0!
1'
#650701
02
#651079
03
#675000
1"
1!
0'
#675507
1.
#675527
12
#675917
13
#677554
17
#677919
0:
#677923
04
#678209
08
#678969
18
#680726
11
1$
#700000
0!
1'
#700701
02
#701079
03
#725000
1!
0'
#725527
12
#725917
13
#727554
07
0;
#728000
1:
#730617
0/
0%
#730642
01
0$
#750000
0"
0!
1'
#750681
0.
#750701
02
#751079
03
#775000
1!
0'
#775527
12
#775917
13
#777554
1;
#777928
14
#780702
1/
1%
#800000
0!
1'
#800701
02
#801079
03
#825000
1"
1!
0'
#825507
1.
#825527
12
#825917
13
#827554
17
#827919
0:
#827923
04
#828209
08
#828969
18
#830726
11
1$
#850000
0!
1'
#850701
02
#851079
03
#875000
1!
0'
#875527
12
#875917
13
#877554
07
0;
#878000
1:
#880617
0/
0%
#880642
01
0$
#900000
0"
0!
1'
#900681
0.
#900701
02
#901079
03
#925000
1!
0'
#925527
12
#925917
13
#927554
1;
#927928
14
#930702
1/
1%
#950000
0!
1'
#950701
02
#951079
03
#975000
1"
1!
0'
#975507
1.
#975527
12
#975917
13
#977554
17
#977919
0:
#977923
04
#978209
08
#978969
18
#980726
11
1$
