Lecture/Homework9/Problem2/simulation/qsim/Problem2.msim.vcd
$comment
	File created using the following command:
		vcd file Problem2.msim.vcd -direction
$end
$date
	Mon Apr 22 20:38:59 2019
$end
$version
	ModelSim Version 10.1d
$end
$timescale
	1ps
$end
$scope module Problem2_vlg_vec_tst $end
$var reg 1 ! Clock $end
$var reg 1 " Resetn $end
$var reg 1 # Stop1 $end
$var reg 1 $ Stop2 $end
$var wire 1 % Dice1 [2] $end
$var wire 1 & Dice1 [1] $end
$var wire 1 ' Dice1 [0] $end
$var wire 1 ( Dice2 [2] $end
$var wire 1 ) Dice2 [1] $end
$var wire 1 * Dice2 [0] $end
$var wire 1 + DIG0 [3] $end
$var wire 1 , DIG0 [2] $end
$var wire 1 - DIG0 [1] $end
$var wire 1 . DIG0 [0] $end
$var wire 1 / DIG1 [3] $end
$var wire 1 0 DIG1 [2] $end
$var wire 1 1 DIG1 [1] $end
$var wire 1 2 DIG1 [0] $end
$var wire 1 3 sampler $end
$scope module i1 $end
$var wire 1 4 gnd $end
$var wire 1 5 vcc $end
$var wire 1 6 unknown $end
$var tri1 1 7 devclrn $end
$var tri1 1 8 devpor $end
$var tri1 1 9 devoe $end
$var wire 1 : Clock~input_o $end
$var wire 1 ; Clock~inputclkctrl_outclk $end
$var wire 1 < DIG1[0]~output_o $end
$var wire 1 = DIG1[1]~output_o $end
$var wire 1 > DIG1[2]~output_o $end
$var wire 1 ? DIG1[3]~output_o $end
$var wire 1 @ DIG0[0]~output_o $end
$var wire 1 A DIG0[1]~output_o $end
$var wire 1 B DIG0[2]~output_o $end
$var wire 1 C DIG0[3]~output_o $end
$var wire 1 D Dice1[0]~output_o $end
$var wire 1 E Dice1[1]~output_o $end
$var wire 1 F Dice1[2]~output_o $end
$var wire 1 G Dice2[0]~output_o $end
$var wire 1 H Dice2[1]~output_o $end
$var wire 1 I Dice2[2]~output_o $end
$var wire 1 J Stop2~input_o $end
$var wire 1 K Count2[0]~0_combout $end
$var wire 1 L Resetn~input_o $end
$var wire 1 M Resetn~inputclkctrl_outclk $end
$var wire 1 N Count2[1]~1_combout $end
$var wire 1 O Stop1~input_o $end
$var wire 1 P Count1[0]~0_combout $end
$var wire 1 Q Add2~1_combout $end
$var wire 1 R Count1[2]~2_combout $end
$var wire 1 S Count2[2]~2_combout $end
$var wire 1 T Add2~4_combout $end
$var wire 1 U Add2~0_combout $end
$var wire 1 V Add2~3_combout $end
$var wire 1 W Mux10~0_combout $end
$var wire 1 X Add2~2_combout $end
$var wire 1 Y Mux9~0_combout $end
$var wire 1 Z Mux8~0_combout $end
$var wire 1 [ Mux7~0_combout $end
$var wire 1 \ Mux6~0_combout $end
$var wire 1 ] Count1[1]~1_combout $end
$var wire 1 ^ Mux2~0_combout $end
$var wire 1 _ Mux1~0_combout $end
$var wire 1 ` Mux0~0_combout $end
$var wire 1 a Mux5~0_combout $end
$var wire 1 b Mux4~0_combout $end
$var wire 1 c Mux3~0_combout $end
$var wire 1 d Count2 [2] $end
$var wire 1 e Count2 [1] $end
$var wire 1 f Count2 [0] $end
$var wire 1 g Count1 [2] $end
$var wire 1 h Count1 [1] $end
$var wire 1 i Count1 [0] $end
$upscope $end
$upscope $end
$enddefinitions $end
#0
$dumpvars
0!
1"
0#
0$
x'
x&
x%
x*
x)
x(
x.
x-
x,
x+
x2
01
00
0/
x3
04
15
x6
17
18
19
0:
x;
x<
0=
0>
0?
x@
xA
xB
xC
xD
xE
xF
xG
xH
xI
0J
xK
1L
xM
xN
0O
xP
xQ
xR
xS
xT
xU
xV
xW
xX
xY
xZ
x[
x\
x]
x^
x_
x`
xa
xb
xc
0f
0e
0d
0i
0h
0g
$end
#378
0;
#390
1M
#471
0N
#473
0S
0]
#477
0R
#587
0\
#588
0T
#602
0`
#725
0U
#729
0c
#745
0X
#757
1a
0b
#765
0_
#776
1^
#887
0Q
#1204
0W
#1362
1Y
#1509
0Z
#1525
0V
#1527
0[
#3471
1K
#3475
1P
#3772
0F
0%
#3787
1D
1'
#3791
0C
0+
#4089
0H
0)
#4214
0I
0(
#4368
1G
1*
#4387
0<
02
#4473
0A
0-
#4492
0B
0,
#4912
0@
0.
#4988
0E
0&
#25000
1!
03
#25527
1:
#25917
1;
#27560
1f
1i
#27929
0P
0K
#27951
1U
#27952
1]
#27959
1N
#28214
1_
#28215
1b
#28217
1Q
0U
#28235
0a
#28238
0^
#28808
1Z
#31133
0D
0'
#31671
1H
1)
#31716
0G
0*
#31889
1A
1-
#32500
1E
1&
#50000
0!
13
#50701
0:
#51079
0;
#75000
1!
03
#75527
1:
#75917
1;
#77560
0f
1e
0i
1h
#77913
1P
1K
#77935
0_
#77936
0b
#77941
1`
#77945
1c
#78041
1U
#78250
0c
#78255
0`
#78285
0U
#78304
1b
#78311
1_
#78317
1a
#78336
1^
#78343
1X
#78380
0Q
#79002
0Z
#79085
1V
#79086
1[
#81347
1D
1'
#81928
1G
1*
#81966
0A
0-
#82168
1B
1,
#100000
0!
13
#100701
0:
#101079
0;
#110000
0"
03
#110701
0L
#111079
0M
#112735
0e
0h
#113104
0]
0N
#113186
0b
#113193
0_
#113480
0X
#114260
0V
#114262
0[
#116518
0H
0)
#117227
0B
0,
#117416
0E
0&
#125000
1!
13
#125527
1:
#125917
1;
#140000
1"
03
#140527
1L
#140917
1M
#150000
0!
13
#150701
0:
#151079
0;
#175000
1!
03
#175527
1:
#175917
1;
#177560
1f
1i
#177929
0P
0K
#177951
1U
#177952
1]
#177959
1N
#178214
1_
#178215
1b
#178217
1Q
0U
#178235
0a
#178238
0^
#178808
1Z
#181133
0D
0'
#181671
1H
1)
#181716
0G
0*
#181889
1A
1-
#182500
1E
1&
#200000
0!
13
#200701
0:
#201079
0;
#225000
1!
03
#225527
1:
#225917
1;
#227560
0f
1e
0i
1h
#227913
1P
1K
#227935
0_
#227936
0b
#227941
1`
#227945
1c
#228041
1U
#228250
0c
#228255
0`
#228285
0U
#228304
1b
#228311
1_
#228317
1a
#228336
1^
#228343
1X
#228380
0Q
#229002
0Z
#229085
1V
#229086
1[
#231347
1D
1'
#231928
1G
1*
#231966
0A
0-
#232168
1B
1,
#250000
1#
0!
13
#250497
1O
#250701
0:
#251079
0;
#253702
0P
#275000
1!
03
#275527
1:
#275917
1;
#277560
1f
#277929
0K
#277949
0N
#277961
1S
#278166
1c
#278219
1U
#278228
0b
#278235
0a
#278817
0Y
#281560
0H
0)
#281716
0G
0*
#281786
1I
1(
#282252
1@
1.
#300000
0!
13
#300701
0:
#301079
0;
#325000
1!
03
#325527
1:
#325917
1;
#327560
0f
0e
1d
#327913
1K
#328086
0V
#328088
0[
#328094
1\
#328095
1T
#328285
0U
#328317
1a
#328435
0X
#328448
1Q
#328922
1Y
#329023
1W
#329189
0\
#329194
0T
#329203
1V
#329205
1[
#329503
0W
#329821
1Z
#331928
1G
1*
#332472
0@
0.
#332902
1A
1-
#350000
0!
13
#350701
0:
#351079
0;
#375000
1$
1!
03
#375527
1:
#375537
1J
#375917
1;
#377560
1f
#377929
0K
#377959
1N
#378215
1b
#378219
1U
#378235
0a
#378755
1K
#378817
0Y
#378980
0N
#381671
1H
1)
#381716
0G
0*
#382252
1@
1.
#400000
0!
13
#400701
0:
#401079
0;
#425000
1!
03
#425527
1:
#425917
1;
#450000
0!
13
#450701
0:
#451079
0;
#475000
1!
03
#475527
1:
#475917
1;
#500000
0#
0!
13
#500671
0O
#500701
0:
#501079
0;
#504146
1P
#525000
1!
03
#525527
1:
#525917
1;
#527560
1i
#527929
0P
#527940
0Q
#527941
0U
#527942
0]
#527955
1X
#527957
1R
#528152
1`
#528228
0_
#528238
0^
#528562
0Z
#528578
1Y
#528682
1T
1\
#528709
0V
#528710
0[
#531133
0D
0'
#531449
1F
1%
#531526
0A
0-
#531675
0B
0,
#532017
1C
1+
#532128
0@
0.
#532451
0E
0&
#550000
0!
13
#550701
0:
#551079
0;
#575000
1!
03
#575527
1:
#575917
1;
#577560
0i
1g
0h
#577913
1]
1P
#578033
0X
0]
#578041
1U
#578065
0\
#578067
1V
#578336
1^
#578752
0Y
#578786
1\
#578813
0V
#581347
1D
1'
#582187
1@
1.
#600000
0!
13
#600701
0:
#601079
0;
#625000
1!
03
#625527
1:
#625917
1;
#627560
1i
#627929
0P
#627941
0U
#627950
1Q
#627952
1]
#628214
1_
#628238
0^
#628525
1W
#628578
1Y
#628691
0\
#631133
0D
0'
#631835
1<
12
#631895
0C
0+
#632128
0@
0.
#632500
1E
1&
#650000
0!
13
#650701
0:
#651079
0;
#675000
1!
03
#675527
1:
#675917
1;
#677560
0i
1h
#677913
1P
#677931
0`
#677935
0_
#677945
1^
#678041
1U
#678639
0Y
#680956
1D
1'
#681101
0F
0%
#682074
1@
1.
#682158
0E
0&
#700000
0!
13
#700701
0:
#701079
0;
#725000
1!
03
#725527
1:
#725917
1;
#727560
1i
#727929
0P
#727940
0Q
#727941
0U
#727942
0]
#727947
0R
#727955
1X
#728578
1Y
#728580
0W
#728697
1V
#729007
1W
1Z
#732088
1A
1-
#732128
0@
0.
#750000
0$
1#
0!
13
#750497
1O
#750701
0:
#750711
0J
#751079
0;
#753712
1P
#753952
1R
#753955
1]
#754172
0K
#754425
1N
#775000
1!
03
#775527
1:
#775917
1;
#777560
0f
1e
#777913
1K
#777935
0c
#777936
0b
#777946
1a
#778287
1U
#778717
0W
0Z
#781268
0H
0)
#781420
0I
0(
#781557
1G
1*
#781681
0A
0-
#781900
0<
02
#800000
0!
13
#800701
0:
#801079
0;
#825000
1!
03
#825527
1:
#825917
1;
#827560
1f
#827929
0K
#827949
0N
#827951
0S
#828217
1Q
0U
#830000
0"
13
#830701
0L
#831079
0M
#832735
0f
0e
0i
0g
0d
0h
#833088
1S
1K
#833104
0]
0R
0P
#833208
0S
#833216
1U
#833323
0T
#833337
1[
#833460
0U
#833480
0X
#833622
0Q
#834260
0V
#834262
0[
#850000
0!
03
#850701
0:
#851079
0;
#870000
1"
13
#870527
1L
#870917
1M
#875000
1!
03
#875527
1:
#875917
1;
#877560
1f
#877929
0K
#877959
1N
#878215
1b
#878219
1U
#878235
0a
#878817
0Y
#881671
1H
1)
#881716
0G
0*
#882252
1@
1.
#900000
0!
13
#900701
0:
#901079
0;
#925000
1!
03
#925527
1:
#925917
1;
#927560
0f
1e
#927913
1K
#927936
0b
#927945
1c
#928250
0c
#928285
0U
#928304
1b
#928317
1a
#928381
1Q
#928922
1Y
#928972
1Z
#931928
1G
1*
#932053
1A
1-
#932472
0@
0.
#950000
0!
13
#950701
0:
#951079
0;
#975000
1!
03
#975527
1:
#975917
1;
#977560
1f
#977929
0K
#977949
0N
#977961
1S
#978166
1c
#978219
1U
#978228
0b
#978235
0a
#978817
0Y
#981560
0H
0)
#981716
0G
0*
#981786
1I
1(
#982252
1@
1.
