Lecture/Homework/Homework4/simulation/qsim/Problem3.msim.vcd
$comment
	File created using the following command:
		vcd file Problem3.msim.vcd -direction
$end
$date
	Mon Mar 04 12:23:51 2019
$end
$version
	ModelSim Version 10.1d
$end
$timescale
	1ps
$end
$scope module Problem_3_vlg_vec_tst $end
$var reg 1 ! A $end
$var reg 1 " B $end
$var reg 1 # C $end
$var reg 1 $ D $end
$var wire 1 % F $end
$var wire 1 & sampler $end
$scope module i1 $end
$var wire 1 ' gnd $end
$var wire 1 ( vcc $end
$var wire 1 ) unknown $end
$var tri1 1 * devclrn $end
$var tri1 1 + devpor $end
$var tri1 1 , devoe $end
$var wire 1 - F~output_o $end
$var wire 1 . B~input_o $end
$var wire 1 / C~input_o $end
$var wire 1 0 D~input_o $end
$var wire 1 1 A~input_o $end
$var wire 1 2 F~0_combout $end
$upscope $end
$upscope $end
$enddefinitions $end
#0
$dumpvars
0!
0"
0#
0$
x%
x&
0'
1(
x)
1*
1+
1,
x-
0.
0/
00
01
x2
$end
#3920
12
#7026
1-
1%
#20000
1$
0&
#20517
10
#40000
1#
0$
1&
#40527
1/
#40691
00
#44197
02
#47185
0-
0%
#60000
1$
0&
#60517
10
#80000
1"
0#
0$
1&
#80507
1.
#80691
00
#80701
0/
#83966
12
#87072
1-
1%
#100000
1$
0&
#100517
10
#120000
1#
0$
1&
#120527
1/
#120691
00
#124245
02
#127233
0-
0%
#140000
1$
0&
#140517
10
#143819
12
#146925
1-
1%
#160000
1!
0"
0#
0$
1&
#160517
11
#160681
0.
#160691
00
#160701
0/
#164421
02
#167409
0-
0%
#180000
1$
0&
#180517
10
#200000
1#
0$
1&
#200527
1/
#200691
00
#220000
1$
0&
#220517
10
#240000
1"
0#
0$
1&
#240507
1.
#240691
00
#240701
0/
#243966
12
#244620
02
#260000
1$
0&
#260517
10
#280000
1#
0$
1&
#280527
1/
#280691
00
#284198
12
#287304
1-
1%
#300000
1$
0&
#300517
10
#320000
0!
0"
0#
0$
1&
#320681
0.
#320691
00
01
#320701
0/
#324143
02
#324621
12
#340000
1$
0&
#340517
10
#360000
1#
0$
1&
#360527
1/
#360691
00
#364197
02
#367185
0-
0%
#380000
1$
0&
#380517
10
#400000
1"
0#
0$
1&
#400507
1.
#400691
00
#400701
0/
#403966
12
#407072
1-
1%
#420000
1$
0&
#420517
10
#440000
1#
0$
1&
#440527
1/
#440691
00
#444245
02
#447233
0-
0%
#460000
1$
0&
#460517
10
#463819
12
#466925
1-
1%
#480000
1!
0"
0#
0$
1&
#480517
11
#480681
0.
#480691
00
#480701
0/
#484421
02
#487409
0-
0%
#500000
1$
0&
#500517
10
#520000
1#
0$
1&
#520527
1/
#520691
00
#540000
1$
0&
#540517
10
#560000
1"
0#
0$
1&
#560507
1.
#560691
00
#560701
0/
#563966
12
#564620
02
#580000
1$
0&
#580517
10
#600000
1#
0$
1&
#600527
1/
#600691
00
#604198
12
#607304
1-
1%
#620000
1$
0&
#620517
10
#640000
0!
0"
0#
0$
1&
#640681
0.
#640691
00
01
#640701
0/
#644143
02
#644621
12
#660000
1$
0&
#660517
10
#680000
1#
0$
1&
#680527
1/
#680691
00
#684197
02
#687185
0-
0%
#700000
1$
0&
#700517
10
#720000
1"
0#
0$
1&
#720507
1.
#720691
00
#720701
0/
#723966
12
#727072
1-
1%
#740000
1$
0&
#740517
10
#760000
1#
0$
1&
#760527
1/
#760691
00
#764245
02
#767233
0-
0%
#780000
1$
0&
#780517
10
#783819
12
#786925
1-
1%
#800000
1!
0"
0#
0$
1&
#800517
11
#800681
0.
#800691
00
#800701
0/
#804421
02
#807409
0-
0%
#820000
1$
0&
#820517
10
#840000
1#
0$
1&
#840527
1/
#840691
00
#860000
1$
0&
#860517
10
#880000
1"
0#
0$
1&
#880507
1.
#880691
00
#880701
0/
#883966
12
#884620
02
#900000
1$
0&
#900517
10
#920000
1#
0$
1&
#920527
1/
#920691
00
#924198
12
#927304
1-
1%
#940000
1$
0&
#940517
10
#960000
0!
0"
0#
0$
1&
#960681
0.
#960691
00
01
#960701
0/
#964143
02
#964621
12
#980000
1$
0&
#980517
10
