Lecture/Homework8/Problem8/simulation/qsim/Problem8.msim.vcd
$comment
	File created using the following command:
		vcd file Problem8.msim.vcd -direction
$end
$date
	Sat Apr 20 00:27:51 2019
$end
$version
	ModelSim Version 10.1d
$end
$timescale
	1ps
$end
$scope module Problem8_vlg_vec_tst $end
$var reg 1 ! Clock $end
$var reg 1 " FWD $end
$var reg 1 # Resetn $end
$var wire 1 $ Q [2] $end
$var wire 1 % Q [1] $end
$var wire 1 & Q [0] $end
$var wire 1 ' sampler $end
$scope module i1 $end
$var wire 1 ( gnd $end
$var wire 1 ) vcc $end
$var wire 1 * unknown $end
$var tri1 1 + devclrn $end
$var tri1 1 , devpor $end
$var tri1 1 - devoe $end
$var wire 1 . Clock~input_o $end
$var wire 1 / Clock~inputclkctrl_outclk $end
$var wire 1 0 Q[0]~output_o $end
$var wire 1 1 Q[1]~output_o $end
$var wire 1 2 Q[2]~output_o $end
$var wire 1 3 FWD~input_o $end
$var wire 1 4 Count[0]~2_combout $end
$var wire 1 5 Resetn~input_o $end
$var wire 1 6 Resetn~inputclkctrl_outclk $end
$var wire 1 7 Add0~1_combout $end
$var wire 1 8 Add0~0_combout $end
$var wire 1 9 Mux2~0_combout $end
$var wire 1 : Mux1~0_combout $end
$var wire 1 ; Mux0~0_combout $end
$var wire 1 < Count [2] $end
$var wire 1 = Count [1] $end
$var wire 1 > Count [0] $end
$upscope $end
$upscope $end
$enddefinitions $end
#0
$dumpvars
0!
0"
1#
x&
x%
x$
x'
0(
1)
x*
1+
1,
1-
0.
x/
x0
x1
x2
03
14
15
x6
x7
x8
x9
x:
x;
0>
0=
0<
$end
#378
0/
#390
16
#698
19
#709
1;
#754
0:
#3721
18
#3738
01
0%
#3752
17
#3800
10
1&
#3834
12
1$
#25000
1!
0'
#25527
1.
#25917
1/
#27554
1>
1=
1<
#27923
04
#28337
0;
#31344
02
0$
#50000
0!
1'
#50701
0.
#51079
0/
#75000
1!
0'
#75527
1.
#75917
1/
#77554
0>
#77907
14
#78009
07
#78309
1:
#81413
11
1%
#100000
0!
1'
#100701
0.
#101079
0/
#125000
1!
0'
#125527
1.
#125917
1/
#127554
1>
0=
#127923
04
#128225
0:
#128272
09
#128389
1;
#131209
01
0%
#131250
00
0&
#131514
12
1$
#150000
0!
1'
#150701
0.
#151079
0/
#175000
1!
0'
#175527
1.
#175917
1/
#177554
0>
#177907
14
#178008
08
#178019
17
#178264
0;
#178306
19
#181271
02
0$
#181408
10
1&
#200000
0!
1'
#200701
0.
#201079
0/
#225000
1!
0'
#225527
1.
#225917
1/
#227554
1>
1=
0<
#227923
04
#228115
09
#231093
00
0&
#250000
1"
0!
1'
#250507
13
#250701
0.
#251079
0/
#253967
18
#253997
07
#275000
1!
0'
#275527
1.
#275917
1/
#277554
0>
0=
1<
#277907
14
#278042
19
#281144
10
1&
#300000
0!
1'
#300701
0.
#301079
0/
#325000
1!
0'
#325527
1.
#325917
1/
#327554
1>
#327923
04
#327940
17
#328202
1;
#328221
09
#331199
00
0&
#331327
12
1$
#350000
0!
1'
#350701
0.
#351079
0/
#375000
1!
0'
#375527
1.
#375917
1/
#377554
0>
1=
#377907
14
#378168
19
#378309
1:
#378337
0;
#381270
10
1&
#381344
02
0$
#381413
11
1%
#400000
0!
1'
#400701
0.
#401079
0/
#425000
1!
0'
#425527
1.
#425917
1/
#427554
1>
#427923
04
#427930
07
08
#428225
0:
#431209
01
0%
#450000
0!
1'
#450701
0.
#451079
0/
#475000
1!
0'
#475527
1.
#475917
1/
#477554
0>
0=
0<
#477907
14
#478263
1;
#481388
12
1$
#500000
0"
0!
1'
#500681
03
#500701
0.
#501079
0/
#504402
18
#504433
17
#520000
0#
0'
#520701
05
#521079
06
#525000
1!
1'
#525527
1.
#525917
1/
#540000
1#
0'
#540527
15
#540917
16
#550000
0!
1'
#550701
0.
#551079
0/
#575000
1!
0'
#575527
1.
#575917
1/
#577554
1>
1=
1<
#577923
04
#578337
0;
#581344
02
0$
#600000
0!
1'
#600701
0.
#601079
0/
#625000
1!
0'
#625527
1.
#625917
1/
#627554
0>
#627907
14
#628009
07
#628309
1:
#631413
11
1%
#650000
0!
1'
#650701
0.
#651079
0/
#675000
1!
0'
#675527
1.
#675917
1/
#677554
1>
0=
#677923
04
#678225
0:
#678272
09
#678389
1;
#681209
01
0%
#681250
00
0&
#681514
12
1$
#700000
0!
1'
#700701
0.
#701079
0/
#725000
1!
0'
#725527
1.
#725917
1/
#727554
0>
#727907
14
#728008
08
#728019
17
#728264
0;
#728306
19
#731271
02
0$
#731408
10
1&
#750000
1"
0!
1'
#750507
13
#750701
0.
#751079
0/
#753967
18
#753997
07
#775000
1!
0'
#775527
1.
#775917
1/
#777554
1>
#777923
04
#777940
17
#778202
1;
#778221
09
#781199
00
0&
#781327
12
1$
#800000
0!
1'
#800701
0.
#801079
0/
#825000
1!
0'
#825527
1.
#825917
1/
#827554
0>
1=
#827907
14
#828168
19
#828309
1:
#828337
0;
#831270
10
1&
#831344
02
0$
#831413
11
1%
#850000
0!
1'
#850701
0.
#851079
0/
#875000
1!
0'
#875527
1.
#875917
1/
#877554
1>
#877923
04
#877930
07
08
#878225
0:
#881209
01
0%
#900000
0!
1'
#900701
0.
#901079
0/
#925000
1!
0'
#925527
1.
#925917
1/
#927554
0>
0=
0<
#927907
14
#928263
1;
#931388
12
1$
#950000
0!
1'
#950701
0.
#951079
0/
#975000
1!
0'
#975527
1.
#975917
1/
#977554
1>
#977923
04
#977940
17
#978221
09
#978226
1:
#981199
00
0&
#981330
11
1%
